<?xml version="1.0" encoding="UTF-8"?>
<svg xmlns="http://www.w3.org/2000/svg" width="114" height="20">
    <linearGradient id="b" x2="0" y2="100%">
        <stop offset="0" stop-color="#bbb" stop-opacity=".1"/>
        <stop offset="1" stop-opacity=".1"/>
    </linearGradient>
    <mask id="anybadge_1">
        <rect width="114" height="20" rx="3" fill="#fff"/>
    </mask>
    <g mask="url(#anybadge_1)">
        <path fill="#555" d="M0 0h47v20H0z"/>
        <path fill="#8bc000" d="M47 0h67v20H47z"/>
        <path fill="url(#b)" d="M0 0h114v20H0z"/>
    </g>
    <g fill="#fff" text-anchor="middle" font-family="DejaVu Sans,Verdana,Geneva,sans-serif" font-size="11">
        <text x="24.5" y="15" fill="#010101" fill-opacity=".3">jetpac</text>
        <text x="23.5" y="14">jetpac</text>
    </g>
    <g fill="#fff" text-anchor="middle" font-family="DejaVu Sans,Verdana,Geneva,sans-serif" font-size="11">
        <text x="81.5" y="15" fill="#010101" fill-opacity=".3">63.7979%</text>
        <text x="80.5" y="14">63.7979%</text>
    </g>
</svg>
