<?xml version="1.0" encoding="UTF-8"?>
<svg xmlns="http://www.w3.org/2000/svg" width="130" height="20">
    <linearGradient id="b" x2="0" y2="100%">
        <stop offset="0" stop-color="#bbb" stop-opacity=".1"/>
        <stop offset="1" stop-opacity=".1"/>
    </linearGradient>
    <mask id="anybadge_1">
        <rect width="130" height="20" rx="3" fill="#fff"/>
    </mask>
    <g mask="url(#anybadge_1)">
        <path fill="#555" d="M0 0h63v20H0z"/>
        <path fill="#6ec000" d="M63 0h67v20H63z"/>
        <path fill="url(#b)" d="M0 0h130v20H0z"/>
    </g>
    <g fill="#fff" text-anchor="middle" font-family="DejaVu Sans,Verdana,Geneva,sans-serif" font-size="11">
        <text x="32.5" y="15" fill="#010101" fill-opacity=".3">minecart</text>
        <text x="31.5" y="14">minecart</text>
    </g>
    <g fill="#fff" text-anchor="middle" font-family="DejaVu Sans,Verdana,Geneva,sans-serif" font-size="11">
        <text x="97.5" y="15" fill="#010101" fill-opacity=".3">71.3400%</text>
        <text x="96.5" y="14">71.3400%</text>
    </g>
</svg>
