<?xml version="1.0" encoding="UTF-8"?>
<svg xmlns="http://www.w3.org/2000/svg" width="112" height="20">
    <linearGradient id="b" x2="0" y2="100%">
        <stop offset="0" stop-color="#bbb" stop-opacity=".1"/>
        <stop offset="1" stop-opacity=".1"/>
    </linearGradient>
    <mask id="anybadge_1">
        <rect width="112" height="20" rx="3" fill="#fff"/>
    </mask>
    <g mask="url(#anybadge_1)">
        <path fill="#555" d="M0 0h45v20H0z"/>
        <path fill="#c07800" d="M45 0h67v20H45z"/>
        <path fill="url(#b)" d="M0 0h112v20H0z"/>
    </g>
    <g fill="#fff" text-anchor="middle" font-family="DejaVu Sans,Verdana,Geneva,sans-serif" font-size="11">
        <text x="23.5" y="15" fill="#010101" fill-opacity=".3">bonus</text>
        <text x="22.5" y="14">bonus</text>
    </g>
    <g fill="#fff" text-anchor="middle" font-family="DejaVu Sans,Verdana,Geneva,sans-serif" font-size="11">
        <text x="79.5" y="15" fill="#010101" fill-opacity=".3">31.2551%</text>
        <text x="78.5" y="14">31.2551%</text>
    </g>
</svg>
