version,section,function,length,matching
us,.bonus,func_bonus_800261B8,808,yes
us,.bonus,func_bonus_80024E38,1116,yes
us,.bonus,func_bonus_80029B9C,696,no
us,.bonus,func_bonus_800240F0,104,yes
us,.bonus,func_bonus_8002BF98,2388,no
us,.bonus,func_bonus_80026940,944,yes
us,.bonus,func_bonus_8002D2F0,1032,yes
us,.bonus,func_bonus_8002D6F8,240,yes
us,.bonus,func_bonus_8002AD10,456,yes
us,.bonus,func_bonus_8002D010,736,yes
us,.bonus,func_bonus_8002AAA4,620,yes
us,.bonus,func_bonus_8002BE44,340,no
us,.bonus,func_bonus_80026690,688,yes
us,.bonus,func_bonus_8002A398,1804,no
us,.bonus,func_bonus_80026CF0,1220,no
us,.bonus,func_bonus_800253E4,156,yes
us,.bonus,func_bonus_8002CC08,1032,no
us,.bonus,func_bonus_80028E3C,1320,no
us,.bonus,func_bonus_800265C0,200,yes
us,.bonus,func_bonus_8002AED8,2632,no
us,.bonus,func_bonus_8002A010,904,no
us,.bonus,func_bonus_800264E0,224,yes
us,.bonus,func_bonus_800254B0,396,yes
us,.bonus,func_bonus_80025480,48,yes
us,.bonus,func_bonus_80027308,52,yes
us,.bonus,func_bonus_800256C4,72,yes
us,.bonus,func_bonus_8002B920,1316,no
us,.bonus,func_bonus_8002570C,2732,no
us,.bonus,func_bonus_80029E54,444,no
us,.bonus,func_bonus_80027F14,1452,no
us,.bonus,func_bonus_800252A0,324,yes
us,.bonus,func_bonus_800284C0,392,yes
us,.bonus,func_bonus_8002881C,1568,no
us,.bonus,func_bonus_8002C8EC,796,yes
us,.bonus,func_bonus_8002563C,136,yes
us,.bonus,func_bonus_8002D7E8,112,yes
us,.bonus,func_bonus_800274A0,168,yes
us,.bonus,func_bonus_80029364,2104,no
us,.bonus,func_bonus_80024000,240,yes
us,.bonus,func_bonus_8002733C,356,yes
us,.bonus,func_bonus_80024158,3044,no
us,.bonus,func_bonus_80024D8C,172,yes
us,.bonus,func_bonus_800277F8,1820,no
us,.bonus,func_bonus_80028648,468,yes
us,.bonus,func_bonus_80027548,688,yes
us,.bonus,func_bonus_80024D3C,80,yes
us,.bonus,func_bonus_800271B4,340,yes
